{
  "ser:stornierePreOrderRequest": {
    "@xmlns:ser": "http://wholesale.telekom.de/servicess/v3/service",
    "@xmlns:xsi": "http://www.w3.org/2001/XMLSchema-instance",
    "control": {
      "zeitstempel": "2008-09-29T03:49:45",
      "majorRelease": "03",
      "minorRelease": "00",
      "signaturId": {
        "issuer": "ISSUER",
        "serial": "SERIAL"
      }
    },
    "kundenReferenz": {
      "kunde": "0000000001"
    },
    "preOrderID": "298dd319-7480-431c-aea2-fda1095a0b12"
  }
}